Atendees,,,,,,,,
Josh,Sheryl,Billy,,,,,,
Govinda,Venkata,,,,,,,
Loren,Jose,,,,,,,
Paresh,Brian,,,,,,,
,,,,,,,,
Standard Deployment Services,,,Service Configuration Updates,,,,,
Service,Version #,PR URL,Application Configuration,Check Sum,PR Status,Comments,,
auth,2.43.0,https://bitbucket.org/clearcapital/kubernetes_env_configs/pull-requests/2833/prod-nightwing-auth-2430-verion-bump/diff,No,No,DONE,,,
billing,,,No,No,N/A,,,
ccp-bulkorder,1.88.0,https://bitbucket.org/clearcapital/kubernetes_env_configs/pull-requests/2834/prod-nightwing-bulkorder-1880-version-bump/diff,No,No,DONE,,,
ccp-clearprop-service,,,No,No,N/A,,,
ccp-encompass-integration,,,No,No,N/A,,,
ccp-encompass-integration-ui,,,No,No,N/A,,,
ccp-order,1.31.0,https://bitbucket.org/clearcapital/kubernetes_env_configs/pull-requests/2836/cte-nightwing-order-1310-version-bump-panl/diff,Yes,No,DONE,,,
ccp-outbound,1.43.0,https://bitbucket.org/clearcapital/kubernetes_env_configs/pull-requests/2837/prod-nightwing-outbound-1430-panl-409/diff,Yes,No,DONE,,,
ccp-review,,,No,No,N/A,,,
ccp-rushmore-integration,,,No,No,N/A,,,
ccp-scorecard,0.29.0,https://bitbucket.org/clearcapital/kubernetes_env_configs/pull-requests/2840/prod-nightwing-scorecard-0290-panl-141/diff,Yes,No,DONE,,,
ccp-selene-integration,,,No,No,N/A,,,
ccp-veros-integration,1.33.0,https://bitbucket.org/clearcapital/kubernetes_env_configs/pull-requests/2845/prod-nightwing-panl-576/diff,Yes,No,DONE,,,
ccp-webapp,0.77.0-924,https://bitbucket.org/clearcapital/kubernetes_env_configs/pull-requests/2841/prod-nightwing-webapp-0770-924-version/diff,No,No,DONE,,,
ccp-product,2.52.0,https://bitbucket.org/clearcapital/kubernetes_env_configs/pull-requests/2842/prod-nightwing-product-2520-panl-688-panl/diff,Yes,No,DONE,,,
ccp-clearre,2019.05.30-2158        ,https://bitbucket.org/clearcapital/kubernetes_env_configs/pull-requests/2843/prod-nightwing-clearre-20190530-2158/diff,No,No,DONE,,,
core,6.46.0,https://bitbucket.org/clearcapital/kubernetes_env_configs/pull-requests/2848/prod-core-nightwing-6460-version-bump/diff,Yes,No,DONE,"Auto Schema needs to be ran before starting core deployment.   For Prod.  Merge first, Update secrets, run core importer auto schema, then deploy k8",,
fmcc-webapp,,,No,No,N/A,,,
lca,,,No,No,N/A,,,
lca-core,,,No,No,N/A,,,
lca-daily-summary,,,No,No,N/A,,,
lca-extension,,,No,No,N/A,,,
message-router,1.34.0,https://bitbucket.org/clearcapital/kubernetes_env_configs/pull-requests/2844/prod-nightwing-message-router-1340-panl/diff,Yes,No,DONE,,,
sdi,,,No,No,N/A,,,
,,,,,,,,
,,,,,,,,
Misc Services to be Deployed,,,Service Configuration Updates,,,,,
Service,Version #,PR URL,Application Configuration,Check Sum,PR Status,Comments,,
form-data-validation,1.10.0,https://bitbucket.org/clearcapital/kubernetes_env_configs/pull-requests/2847/ss-prod-nightwing-update-to-1100/diff,,,DONE,,,
Jaeger Configs,,https://bitbucket.org/clearcapital/kubernetes_env_configs/pull-requests/2700/merge-jaeger-configs-to-ss-prod/diff,,,APPROVAL DONE,Holding off due to conflict,,
SS-PROD Comp AG,2.13.0,https://bitbucket.org/clearcapital/kubernetes_env_configs/pull-requests/2857/ss-prod-comp_ag-2130-bp-1068/diff,,,DONE,,,
,,,,,,,,
,,,,,,,,
,,,,,,,,
,,,,,,,,
,,,,,,,,
,,,,,,,,
,,,,,,,,
,,,No,No,N/A,,,
,,,,,,,,
,,,,,,,,
,,,,,,,,
,,,,,,,,
,,,,,,,,
01- Release Planning Activities,,,Completed,Owner,Time Start,Duration,Comments,
Walk the release plan and signoff,,,Yes,RM,7:57:43 PM,0:00:15,,
Review PR's,,,Yes,All,7:57:47 PM,0:00:16,,
Record call start time,,,Yes,RM,8:05:05 PM,0:00:07,,
,,,,,,,,
,,,,,,,,
02 - Dev-Ops Execution Activities,,,Completed,Owner,Time Start,Duration,Non-Standard,Comments
Pre check of K8s cluster to ensure no problems before deploy starts,,,Yes,Jose,7:57:51 PM,0:00:14,FALSE,
Pre check kibana logs for errors so we are aware of any issues,,,Yes,Jose,7:57:54 PM,00:00:14 ,FALSE,
Send notification for deployment,,,Yes,RM,8:05:54 PM,00:00:18 ,FALSE,
Merge PR's for service version and configuration updates:,,,Yes,Jose,8:07:04 PM,0:08:04,FALSE,
"Run auto schema
https://jenkins-integ.clearcollateral.com/job/Import/
ENV = ccp-prod
TARGET = core
COMMAND = auto-schema",,,Yes,Jose,8:06:26 PM,0:21:15,TRUE,
Git Pull - verify version,,,Yes,Jose,8:17:34 PM,00:03:35 ,FALSE,
Promote services to environment,,,Yes,Jose,8:27:44 PM,0:02:32,FALSE,
Verify installed package versions,,,Yes,Jose,8:27:47 PM,00:02:44 ,FALSE,
"Import Rules Engine Update:
https://jenkins-integ.clearcollateral.com/job/saas-importer-v2/
ENV = ccp-prod
IMPORT_TARGET_SERVICE = CORE
IMPORT_SOURCE_REPO_PATH = all-env-imports/FMCC/validationrulesets/C1_S4_V5.validationruleset.json
",,,Yes,Jose,8:30:37 PM,00:04:31 ,TRUE,
"Run Auth importer
https://jenkins-integ.clearcollateral.com/job/Import/
Environment: ccp-prod
Target: auth
Command: importer -r import",,,Yes,Jose,8:35:14 PM,00:02:00 ,TRUE,
,,,No,,,,FALSE,
,,,No,,,,FALSE,
,,,No,,,,FALSE,
,,,No,,,,FALSE,
,,,No,,,,FALSE,
,,,No,,,,FALSE,
,,,No,,,,FALSE,
,,,No,,,,FALSE,
,,,,,,,,
,,,,,,,,
03 - Standard Automated Regression Items,,Test Plan ID,Completed,Owner,Time Start,Duration,Comments,
CCP Classic UI Regression,,,N/A,Jose,,,,
CCP PANL Regression,,CCP PANL Regression Test Plan,N/A,Jose,,,,
CCP Regression,,CCP Regression Test Plan,N/A,Jose,,,,
CCP Workflow Regression,,Workflow Regression Test Plan,N/A,Jose,,,,
ClearProp Regression,,ClearProp Regression Test Plan,N/A,Jose,,,,
LCA Backend Regression,,LCA Backend Regression Test Plan,N/A,Govinda,,,,
LCA UI Regression,,LCA UI Regression Test Plan,N/A,Govinda,,,,
Smoke Tests,,Smoke Test Regression Test Plan,Yes,Jose,8:37:18 PM,0:09:58,,
,,,,,,,,
04 - Standard Manual Regression Items,,Test Plan ID,Completed,Owner,Time Start,Duration,Comments,
MLS Photos,,Manual verification of photos existing,N/A,SQA,,,,
Veros,,?,N/A,SQA,,,,
Bulk Import,,Bulk Import Regression Test Plan,N/A,SQA,,,,
"Order workflow (place order, accept order, fulfill order, complete case)",,Order Workflow Regression Test Plan,N/A,SQA,,,,
Manual Selene Regression,,Selene Regression Test Plan,N/A,SQA,,,,
Google Maps Integration,,Google Maps Integration Regression Test Plan,N/A,SQA,,,,
Manual Rushmore Regression,,Rushmore Regression Test Plan,N/A,SQA,,,,
Verify LCA SDI file,,https://docs.google.com/spreadsheets/d/1H9kFkwa9xjRDL8Ihl43YVx08_uaItgHr17JrapgA_hE/edit?usp=drive_web&ouid=115417368484942988632,N/A,SQA,,,,
Verify LCA Extension file,,https://docs.google.com/spreadsheets/d/1H9kFkwa9xjRDL8Ihl43YVx08_uaItgHr17JrapgA_hE/edit?usp=drive_web&ouid=115417368484942988633,N/A,SQA,,,,
Verify LCA daily summary file,,https://docs.google.com/spreadsheets/d/1H9kFkwa9xjRDL8Ihl43YVx08_uaItgHr17JrapgA_hE/edit?usp=drive_web&ouid=115417368484942988634,N/A,SQA,,,,
Verify LCA last login file,,https://docs.google.com/spreadsheets/d/1H9kFkwa9xjRDL8Ihl43YVx08_uaItgHr17JrapgA_hE/edit?usp=drive_web&ouid=115417368484942988635,N/A,SQA,,,,
,,,,,,,,
05 - Release Specific Testing Items,,Test Plan ID,Completed,Owner,Time Start,Duration,Comments,
Verify Team Member Queues,,,Yes,Billy,8:37:25 PM,0:13:49,,
Verify Queue Builder,,,Yes,Billy,8:37:28 PM,0:13:51,,
Verify GRate user and making sure the order page isn't there,,,Yes,Billy,8:37:30 PM,0:13:51,,
Review LCA log to verify no SLA violation,,,Yes,Brian,8:41:13 PM,0:05:55,,
,,,No,,,,,
,,,No,,,,,
,,,No,,,,,
,,,,,,,,
,,,,,,,,
06 - Offline Testing,,Test Plan ID,Completed,Owner,Time Start,Duration,Comments,
Run ADVS 10/1000 load test,,,N/A,Jose,,,,
Run JMeter performance - 10 User,,,N/A,Jose,,,,
Run JMeter performance - 35 User,,,N/A,Jose,,,,
,,,N/A,SQA,,,,
,,,,,,,,
,,,,,,,,
07 - Final Review,,,Completed,Owner,Time Start,Duration,Comments,
Review Logs,,,Yes,Jose,8:50:45 PM,0:01:47,"Logs look clean, will be following up tomorrow when traffic ramps up",
,,,,,,,,
,,,,,,,,
08 - Sign Off Activity,,,Completed,Owner,Time Start,Duration,Comments,
SQA,,,Yes,Billy,8:52:36 PM,0:25:31,,
DevOps,,,Yes,Jose,8:52:40 PM,0:25:32,,
Release Management,,,Yes,Brian,8:52:44 PM,0:25:35,,
Deployment complete email,,,Yes,RM,9:18:15 PM,0:01:08,,
Call Ended,,,Yes,RM,9:19:28 PM,0:00:05,,
,,,,,,,,
,,,,,,,,
09 - Issues Identified on Call,,,Completed,Owner,Comments,,,
PANL-796 Create.  SUmmary report for GS org where users can't download,,,In Progress,Billy,,,,
PANL-795 - Outbound roles and permisisons made update to require ccadmin but not listed in swagger,,,In Progress,Billy,,,,
failed Clearre rules list - due tomorrow morning,,,No,,Assigned to Josh,,,
,,,No,,,,,
,,,No,,,,,